Issue ID,URL,Title,State,Description,Author,Author Username,Assignee,Assignee Username,Confidential,Locked,Due Date,Created At (UTC),Updated At (UTC),Closed At (UTC),Milestone,Weight,Labels,Time Estimate,Time Spent
1,https://gitlab.com/unifei-projetos-com212-smart-api/smartapi/-/issues/1,Teste,Closed,,Denis Souza,DenisSouza2018,Denis Souza,DenisSouza2018,No,No,,2020-06-03 21:20:57,2020-06-04 19:56:14,2020-06-04 19:56:14,,,feature,0,0
2,https://gitlab.com/unifei-projetos-com212-smart-api/smartapi/-/issues/2,Funções auxiliares de categorias e subcategorias,Closed,Criação das funções de auxílio para categorias e subcategorias de empresa,Rafael Greca,rafaelgreca,Rafael Greca,rafaelgreca,No,No,,2020-06-04 20:00:05,2020-06-04 22:50:38,2020-06-04 22:50:38,,,feature,0,0
3,https://gitlab.com/unifei-projetos-com212-smart-api/smartapi/-/issues/3,CRUD empresa,Closed,"",Rafael Greca,rafaelgreca,Rafael Greca,rafaelgreca,No,No,,2020-06-05 01:14:43,2020-06-05 23:43:43,2020-06-05 23:43:43,,,feature,0,0
4,https://gitlab.com/unifei-projetos-com212-smart-api/smartapi/-/issues/4,CRUD órgão,Closed,"",Rafael Greca,rafaelgreca,Rafael Greca,rafaelgreca,No,No,,2020-06-05 23:44:30,2020-06-06 19:31:23,2020-06-06 19:31:23,,,feature,0,0
5,https://gitlab.com/unifei-projetos-com212-smart-api/smartapi/-/issues/5,CRUD licitacao,Closed,"",Rafael Greca,rafaelgreca,Rafael Greca,rafaelgreca,No,No,,2020-06-10 12:56:14,2020-06-15 11:25:28,2020-06-15 11:25:28,,,feature,0,0
